{
  "blurb": "Bob is a lackadaisical teenager. In conversation, his responses are very limited.",
  "authors": [],
  "files": {
    "solution": [
      "src/bob.clj"
    ],
    "test": [
      "test/bob_test.clj"
    ],
    "example": [
      "src/example.clj"
    ]
  },
  "source": "Inspired by the 'Deaf Grandma' exercise in Chris Pine's Learn to Program tutorial.",
  "source_url": "http://pine.fm/LearnToProgram/?Chapter=06"
}
